simulation/qsim/horloge.msim.vcd
$comment
	File created using the following command:
		vcd file horloge.msim.vcd -direction
$end
$date
	Tue Dec 17 17:37:30 2024
$end
$version
	ModelSim Version 10.1d
$end
$timescale
	1ps
$end
$scope module cpt_dcpt_vlg_vec_tst $end
$var reg 1 ! clk $end
$var reg 4 " dh [3:0] $end
$var reg 4 # dm [3:0] $end
$var reg 1 $ enable $end
$var reg 1 % mode $end
$var reg 1 & reset $end
$var reg 1 ' start $end
$var reg 4 ( uh [3:0] $end
$var reg 4 ) um [3:0] $end
$var wire 1 * alarme $end
$var wire 1 + h1 [3] $end
$var wire 1 , h1 [2] $end
$var wire 1 - h1 [1] $end
$var wire 1 . h1 [0] $end
$var wire 1 / h2 [3] $end
$var wire 1 0 h2 [2] $end
$var wire 1 1 h2 [1] $end
$var wire 1 2 h2 [0] $end
$var wire 1 3 m1 [3] $end
$var wire 1 4 m1 [2] $end
$var wire 1 5 m1 [1] $end
$var wire 1 6 m1 [0] $end
$var wire 1 7 m2 [3] $end
$var wire 1 8 m2 [2] $end
$var wire 1 9 m2 [1] $end
$var wire 1 : m2 [0] $end
$var wire 1 ; s1 [3] $end
$var wire 1 < s1 [2] $end
$var wire 1 = s1 [1] $end
$var wire 1 > s1 [0] $end
$var wire 1 ? s2 [3] $end
$var wire 1 @ s2 [2] $end
$var wire 1 A s2 [1] $end
$var wire 1 B s2 [0] $end
$var wire 1 C sampler $end
$scope module i1 $end
$var wire 1 D gnd $end
$var wire 1 E vcc $end
$var wire 1 F unknown $end
$var tri1 1 G devclrn $end
$var tri1 1 H devpor $end
$var tri1 1 I devoe $end
$var wire 1 J ~QUARTUS_CREATED_GND~I_combout $end
$var wire 1 K clk~input_o $end
$var wire 1 L clk~inputCLKENA0_outclk $end
$var wire 1 M start~input_o $end
$var wire 1 N mode~input_o $end
$var wire 1 O enable~input_o $end
$var wire 1 P dm[0]~input_o $end
$var wire 1 Q uh[0]~input_o $end
$var wire 1 R reset~input_o $end
$var wire 1 S r_s2~0_combout $end
$var wire 1 T r_s1~5_combout $end
$var wire 1 U r_s1~6_combout $end
$var wire 1 V r_s1~7_combout $end
$var wire 1 W enable_alarme~0_combout $end
$var wire 1 X Equal6~0_combout $end
$var wire 1 Y uh[3]~input_o $end
$var wire 1 Z uh[2]~input_o $end
$var wire 1 [ r_h1[1]~5_combout $end
$var wire 1 \ r_h2[1]~3_combout $end
$var wire 1 ] dh[2]~input_o $end
$var wire 1 ^ r_h2~7_combout $end
$var wire 1 _ r_s2~7_combout $end
$var wire 1 ` r_s2[1]~3_combout $end
$var wire 1 a Equal7~0_combout $end
$var wire 1 b r_m1[1]~3_combout $end
$var wire 1 c um[1]~input_o $end
$var wire 1 d r_m1[1]~4_combout $end
$var wire 1 e r_m1~5_combout $end
$var wire 1 f r_m1[1]~6_combout $end
$var wire 1 g r_m1[1]~8_combout $end
$var wire 1 h Equal8~1_combout $end
$var wire 1 i r_m1~9_combout $end
$var wire 1 j r_m1~10_combout $end
$var wire 1 k um[3]~input_o $end
$var wire 1 l Equal0~0_combout $end
$var wire 1 m r_m1~11_combout $end
$var wire 1 n r_m1~12_combout $end
$var wire 1 o r_m1~13_combout $end
$var wire 1 p um[2]~input_o $end
$var wire 1 q r_m1~14_combout $end
$var wire 1 r Equal8~0_combout $end
$var wire 1 s r_h1~1_combout $end
$var wire 1 t r_h2[1]~9_combout $end
$var wire 1 u r_h2[1]~6_combout $end
$var wire 1 v dh[3]~input_o $end
$var wire 1 w Add5~0_combout $end
$var wire 1 x Add6~0_combout $end
$var wire 1 y r_h2~8_combout $end
$var wire 1 z GESTION_CPT~0_combout $end
$var wire 1 { r_h2[1]~4_combout $end
$var wire 1 | dh[1]~input_o $end
$var wire 1 } r_h2~5_combout $end
$var wire 1 ~ GESTION_CPT~1_combout $end
$var wire 1 !! r_h1[1]~6_combout $end
$var wire 1 "! r_h1~9_combout $end
$var wire 1 #! r_h1[1]~8_combout $end
$var wire 1 $! r_h1~10_combout $end
$var wire 1 %! r_h1~16_combout $end
$var wire 1 &! r_h1~11_combout $end
$var wire 1 '! r_h1~12_combout $end
$var wire 1 (! Equal10~0_combout $end
$var wire 1 )! r_s1~0_combout $end
$var wire 1 *! r_s1~1_combout $end
$var wire 1 +! r_s1~4_combout $end
$var wire 1 ,! r_s1[1]~3_combout $end
$var wire 1 -! r_s1~2_combout $end
$var wire 1 .! r_m1[1]~7_combout $end
$var wire 1 /! r_s1~8_combout $end
$var wire 1 0! r_s2~1_combout $end
$var wire 1 1! r_s2~5_combout $end
$var wire 1 2! Add10~0_combout $end
$var wire 1 3! r_s2~4_combout $end
$var wire 1 4! r_s2~6_combout $end
$var wire 1 5! r_s2~2_combout $end
$var wire 1 6! Equal1~0_combout $end
$var wire 1 7! r_m1~0_combout $end
$var wire 1 8! r_m1~1_combout $end
$var wire 1 9! um[0]~input_o $end
$var wire 1 :! r_m1~2_combout $end
$var wire 1 ;! Equal2~0_combout $end
$var wire 1 <! r_h1~15_combout $end
$var wire 1 =! r_h1[1]~14_combout $end
$var wire 1 >! r_m2~8_combout $end
$var wire 1 ?! dm[2]~input_o $end
$var wire 1 @! r_m2~9_combout $end
$var wire 1 A! r_m2~6_combout $end
$var wire 1 B! r_m2~7_combout $end
$var wire 1 C! r_m2~5_combout $end
$var wire 1 D! r_m2~10_combout $end
$var wire 1 E! Equal3~0_combout $end
$var wire 1 F! r_h1~0_combout $end
$var wire 1 G! r_h1~3_combout $end
$var wire 1 H! r_m2~0_combout $end
$var wire 1 I! r_h1~2_combout $end
$var wire 1 J! r_h1~4_combout $end
$var wire 1 K! uh[1]~input_o $end
$var wire 1 L! r_h1~7_combout $end
$var wire 1 M! Equal5~0_combout $end
$var wire 1 N! r_h2~0_combout $end
$var wire 1 O! dh[0]~input_o $end
$var wire 1 P! r_h2~1_combout $end
$var wire 1 Q! r_h2~2_combout $end
$var wire 1 R! Equal11~0_combout $end
$var wire 1 S! r_m2~1_combout $end
$var wire 1 T! r_h1[1]~13_combout $end
$var wire 1 U! r_m2~2_combout $end
$var wire 1 V! r_m2~3_combout $end
$var wire 1 W! dm[1]~input_o $end
$var wire 1 X! r_m2~15_combout $end
$var wire 1 Y! r_m2[3]~4_combout $end
$var wire 1 Z! dm[3]~input_o $end
$var wire 1 [! r_m2~11_combout $end
$var wire 1 \! Equal9~0_combout $end
$var wire 1 ]! enable_alarme~1_combout $end
$var wire 1 ^! enable_alarme~q $end
$var wire 1 _! Add12~93_sumout $end
$var wire 1 `! Add12~46 $end
$var wire 1 a! Add12~41_sumout $end
$var wire 1 b! Add12~42 $end
$var wire 1 c! Add12~85_sumout $end
$var wire 1 d! Add12~86 $end
$var wire 1 e! Add12~81_sumout $end
$var wire 1 f! Add12~82 $end
$var wire 1 g! Add12~77_sumout $end
$var wire 1 h! Add12~78 $end
$var wire 1 i! Add12~73_sumout $end
$var wire 1 j! Add12~74 $end
$var wire 1 k! Add12~69_sumout $end
$var wire 1 l! Add12~70 $end
$var wire 1 m! Add12~65_sumout $end
$var wire 1 n! Add12~66 $end
$var wire 1 o! Add12~37_sumout $end
$var wire 1 p! Add12~38 $end
$var wire 1 q! Add12~125_sumout $end
$var wire 1 r! Add12~126 $end
$var wire 1 s! Add12~121_sumout $end
$var wire 1 t! Add12~122 $end
$var wire 1 u! Add12~113_sumout $end
$var wire 1 v! Add12~114 $end
$var wire 1 w! Add12~117_sumout $end
$var wire 1 x! Add12~118 $end
$var wire 1 y! Add12~109_sumout $end
$var wire 1 z! Add12~110 $end
$var wire 1 {! Add12~33_sumout $end
$var wire 1 |! Add12~34 $end
$var wire 1 }! Add12~105_sumout $end
$var wire 1 ~! Add12~106 $end
$var wire 1 !" Add12~101_sumout $end
$var wire 1 "" Add12~102 $end
$var wire 1 #" Add12~97_sumout $end
$var wire 1 $" Add12~98 $end
$var wire 1 %" Add12~1_sumout $end
$var wire 1 &" Add12~2 $end
$var wire 1 '" Add12~61_sumout $end
$var wire 1 (" Add12~62 $end
$var wire 1 )" Add12~25_sumout $end
$var wire 1 *" Add12~26 $end
$var wire 1 +" Add12~21_sumout $end
$var wire 1 ," Add12~22 $end
$var wire 1 -" Add12~17_sumout $end
$var wire 1 ." Add12~18 $end
$var wire 1 /" Add12~13_sumout $end
$var wire 1 0" Add12~14 $end
$var wire 1 1" Add12~9_sumout $end
$var wire 1 2" Add12~10 $end
$var wire 1 3" Add12~5_sumout $end
$var wire 1 4" LessThan1~0_combout $end
$var wire 1 5" cpt_alarme[1]~0_combout $end
$var wire 1 6" Add12~94 $end
$var wire 1 7" Add12~89_sumout $end
$var wire 1 8" Add12~90 $end
$var wire 1 9" Add12~29_sumout $end
$var wire 1 :" Add12~30 $end
$var wire 1 ;" Add12~57_sumout $end
$var wire 1 <" Add12~58 $end
$var wire 1 =" Add12~53_sumout $end
$var wire 1 >" Add12~54 $end
$var wire 1 ?" Add12~49_sumout $end
$var wire 1 @" Add12~50 $end
$var wire 1 A" Add12~45_sumout $end
$var wire 1 B" LessThan1~1_combout $end
$var wire 1 C" LessThan1~3_combout $end
$var wire 1 D" LessThan1~4_combout $end
$var wire 1 E" LessThan1~2_combout $end
$var wire 1 F" LessThan1~5_combout $end
$var wire 1 G" r_alarme~0_combout $end
$var wire 1 H" r_alarme~q $end
$var wire 1 I" r_m1 [3] $end
$var wire 1 J" r_m1 [2] $end
$var wire 1 K" r_m1 [1] $end
$var wire 1 L" r_m1 [0] $end
$var wire 1 M" r_h2 [3] $end
$var wire 1 N" r_h2 [2] $end
$var wire 1 O" r_h2 [1] $end
$var wire 1 P" r_h2 [0] $end
$var wire 1 Q" r_s2 [3] $end
$var wire 1 R" r_s2 [2] $end
$var wire 1 S" r_s2 [1] $end
$var wire 1 T" r_s2 [0] $end
$var wire 1 U" r_m2 [3] $end
$var wire 1 V" r_m2 [2] $end
$var wire 1 W" r_m2 [1] $end
$var wire 1 X" r_m2 [0] $end
$var wire 1 Y" r_s1 [3] $end
$var wire 1 Z" r_s1 [2] $end
$var wire 1 [" r_s1 [1] $end
$var wire 1 \" r_s1 [0] $end
$var wire 1 ]" cpt_alarme [31] $end
$var wire 1 ^" cpt_alarme [30] $end
$var wire 1 _" cpt_alarme [29] $end
$var wire 1 `" cpt_alarme [28] $end
$var wire 1 a" cpt_alarme [27] $end
$var wire 1 b" cpt_alarme [26] $end
$var wire 1 c" cpt_alarme [25] $end
$var wire 1 d" cpt_alarme [24] $end
$var wire 1 e" cpt_alarme [23] $end
$var wire 1 f" cpt_alarme [22] $end
$var wire 1 g" cpt_alarme [21] $end
$var wire 1 h" cpt_alarme [20] $end
$var wire 1 i" cpt_alarme [19] $end
$var wire 1 j" cpt_alarme [18] $end
$var wire 1 k" cpt_alarme [17] $end
$var wire 1 l" cpt_alarme [16] $end
$var wire 1 m" cpt_alarme [15] $end
$var wire 1 n" cpt_alarme [14] $end
$var wire 1 o" cpt_alarme [13] $end
$var wire 1 p" cpt_alarme [12] $end
$var wire 1 q" cpt_alarme [11] $end
$var wire 1 r" cpt_alarme [10] $end
$var wire 1 s" cpt_alarme [9] $end
$var wire 1 t" cpt_alarme [8] $end
$var wire 1 u" cpt_alarme [7] $end
$var wire 1 v" cpt_alarme [6] $end
$var wire 1 w" cpt_alarme [5] $end
$var wire 1 x" cpt_alarme [4] $end
$var wire 1 y" cpt_alarme [3] $end
$var wire 1 z" cpt_alarme [2] $end
$var wire 1 {" cpt_alarme [1] $end
$var wire 1 |" cpt_alarme [0] $end
$var wire 1 }" r_h1 [3] $end
$var wire 1 ~" r_h1 [2] $end
$var wire 1 !# r_h1 [1] $end
$var wire 1 "# r_h1 [0] $end
$upscope $end
$upscope $end
$enddefinitions $end
#0
$dumpvars
0!
b0 "
b101 #
1$
1%
0&
1'
b0 (
b1001 )
0*
0.
0-
0,
0+
02
01
00
0/
06
05
04
03
0:
09
08
07
0>
0=
0<
0;
0B
0A
0@
0?
xC
0D
1E
xF
1G
1H
1I
0J
0K
0L
1M
1N
1O
1P
0Q
0R
0S
0T
0U
0V
1W
1X
0Y
0Z
0[
0\
0]
0^
0_
1`
1a
0b
0c
1d
0e
0f
1g
1h
0i
0j
1k
0l
0m
1n
1o
0p
0q
1r
0s
1t
1u
0v
0w
0x
0y
1z
0{
0|
0}
0~
0!!
0"!
1#!
0$!
0%!
1&!
0'!
0(!
0)!
0*!
0+!
1,!
0-!
0.!
1/!
00!
01!
02!
13!
04!
05!
06!
07!
08!
19!
1:!
0;!
0<!
0=!
0>!
1?!
1@!
0A!
0B!
0C!
1D!
0E!
0F!
1G!
1H!
0I!
0J!
0K!
0L!
0M!
0N!
0O!
0P!
0Q!
1R!
1S!
0T!
0U!
1V!
0W!
0X!
1Y!
0Z!
0[!
1\!
0]!
0^!
1_!
0`!
0a!
0b!
0c!
0d!
0e!
0f!
0g!
0h!
0i!
0j!
0k!
0l!
0m!
0n!
0o!
0p!
0q!
0r!
0s!
0t!
0u!
0v!
0w!
0x!
0y!
0z!
0{!
0|!
0}!
0~!
0!"
0""
0#"
0$"
0%"
0&"
0'"
0("
0)"
0*"
0+"
0,"
0-"
0."
0/"
00"
01"
02"
03"
14"
15"
06"
07"
08"
09"
0:"
0;"
0<"
0="
0>"
0?"
0@"
0A"
1B"
1C"
1D"
1E"
1F"
0G"
0H"
0L"
0K"
0J"
0I"
0P"
0O"
0N"
0M"
0T"
0S"
0R"
0Q"
0X"
0W"
0V"
0U"
0\"
0["
0Z"
0Y"
0|"
0{"
0z"
0y"
0x"
0w"
0v"
0u"
0t"
0s"
0r"
0q"
0p"
0o"
0n"
0m"
0l"
0k"
0j"
0i"
0h"
0g"
0f"
0e"
0d"
0c"
0b"
0a"
0`"
0_"
0^"
0]"
0"#
0!#
0~"
0}"
$end
#5000
1!
1K
1L
0C
1X"
1V"
1L"
1I"
1C!
1E!
1U!
0\!
1B!
0d
0h
0r
18!
1;!
1:
18
16
13
1i
1)!
0/!
03!
#10000
0!
0K
0L
1C
#15000
1!
1K
1L
0C
#20000
0!
0K
0L
1C
#25000
1!
1K
1L
0C
#30000
0!
0K
0L
1C
#35000
1!
1K
1L
0C
#40000
0!
0K
0L
1C
#45000
1!
1K
1L
0C
#50000
0!
0K
0L
1C
#55000
1!
1K
1L
0C
#60000
0!
0K
0L
1C
#65000
1!
1K
1L
0C
#70000
0!
0K
0L
1C
#75000
1!
1K
1L
0C
#80000
0!
0K
0L
1C
#85000
1!
1K
1L
0C
#90000
0!
0K
0L
1C
#95000
1!
1K
1L
0C
#100000
0!
0K
0L
1C
#105000
1!
1K
1L
0C
#110000
0!
0K
0L
1C
#115000
1!
1K
1L
0C
#120000
0!
0K
0L
1C
#125000
1!
1K
1L
0C
#130000
0!
0K
0L
1C
#135000
1!
1K
1L
0C
#140000
0!
0K
0L
1C
#145000
1!
1K
1L
0C
#150000
0!
0K
0L
1C
#155000
1!
1K
1L
0C
#160000
0!
0K
0L
1C
#165000
1!
1K
1L
0C
#170000
0!
0K
0L
1C
#175000
1!
1K
1L
0C
#180000
0!
0K
0L
1C
#185000
1!
1K
1L
0C
#190000
0!
0K
0L
1C
#195000
1!
1K
1L
0C
#200000
0!
0K
0L
1C
#205000
1!
1K
1L
0C
#210000
0!
0K
0L
1C
#215000
1!
1K
1L
0C
#220000
0!
0K
0L
1C
#225000
1!
1K
1L
0C
#230000
0!
0K
0L
1C
#235000
1!
1K
1L
0C
#240000
0'
0!
0M
0K
0L
1C
1S
1[
1\
0`
0g
0n
0u
0#!
1*!
1<!
0@!
0Y!
#245000
1!
1K
1L
0C
1\"
0X
0*!
1-!
1>
0)!
#250000
0!
0K
0L
1C
#255000
1!
1K
1L
0C
1["
0\"
1*!
1=
0>
#260000
0!
0K
0L
1C
#265000
1!
1K
1L
0C
1\"
0*!
1+!
0-!
1>
#270000
0!
0K
0L
1C
#275000
1!
1K
1L
0C
0["
1Z"
0\"
1*!
0=
1<
0>
#280000
0!
0K
0L
1C
#285000
1!
1K
1L
0C
1\"
0*!
1-!
1>
#290000
0!
0K
0L
1C
#295000
1!
1K
1L
0C
1["
0\"
1*!
1=
0>
#300000
0!
0K
0L
1C
#305000
1!
1K
1L
0C
1\"
1U
0*!
0+!
0-!
1>
1V
#310000
0!
0K
0L
1C
#315000
1!
1K
1L
0C
0["
0Z"
0\"
1Y"
1T
1*!
0=
0<
0>
1;
#320000
0!
0K
0L
1C
#325000
1!
1K
1L
0C
1\"
0U
1l
0*!
1.!
1>
0V
1`
10!
#330000
0!
0K
0L
1C
#335000
1!
1K
1L
0C
1T"
0\"
0Y"
0a
00!
12!
15!
0T
1X
0l
1*!
0.!
1B
0>
0;
1)!
10!
13!
0`
#340000
0!
0K
0L
1C
#345000
1!
1K
1L
0C
1\"
0X
0*!
1-!
1>
0)!
#350000
0!
0K
0L
1C
#355000
1!
1K
1L
0C
1["
0\"
1*!
1=
0>
#360000
0!
0K
0L
1C
#365000
1!
1K
1L
0C
1\"
0*!
1+!
0-!
1>
#370000
0!
0K
0L
1C
#375000
1!
1K
1L
0C
0["
1Z"
0\"
1*!
0=
1<
0>
#380000
0!
0K
0L
1C
#385000
1!
1K
1L
0C
1\"
0*!
1-!
1>
#390000
0!
0K
0L
1C
#395000
1!
1K
1L
0C
1["
0\"
1*!
1=
0>
#400000
0!
0K
0L
1C
#405000
1!
1K
1L
0C
1\"
1U
0*!
0+!
0-!
1>
1V
#410000
0!
0K
0L
1C
#415000
1!
1K
1L
0C
0["
0Z"
0\"
1Y"
1T
1*!
0=
0<
0>
1;
#420000
0!
0K
0L
1C
#425000
1!
1K
1L
0C
1\"
0U
1l
0*!
1.!
1>
0V
1`
00!
#430000
0!
0K
0L
1C
#435000
1!
1K
1L
0C
1S"
0T"
0\"
0Y"
10!
0T
1X
0l
1*!
0.!
1A
0B
0>
0;
1)!
0`
00!
#440000
0!
0K
0L
1C
#445000
1!
1K
1L
0C
1\"
0X
0*!
1-!
1>
0)!
#450000
0!
0K
0L
1C
#455000
1!
1K
1L
0C
1["
0\"
1*!
1=
0>
#460000
0!
0K
0L
1C
#465000
1!
1K
1L
0C
1\"
0*!
1+!
0-!
1>
#470000
0!
0K
0L
1C
#475000
1!
1K
1L
0C
0["
1Z"
0\"
1*!
0=
1<
0>
#480000
0!
0K
0L
1C
#485000
1!
1K
1L
0C
1\"
0*!
1-!
1>
#490000
0!
0K
0L
1C
#495000
1!
1K
1L
0C
1["
0\"
1*!
1=
0>
#500000
0!
0K
0L
1C
#505000
1!
1K
1L
0C
1\"
1U
0*!
0+!
0-!
1>
1V
#510000
0!
0K
0L
1C
#515000
1!
1K
1L
0C
0["
0Z"
0\"
1Y"
1T
1*!
0=
0<
0>
1;
#520000
0!
0K
0L
1C
#525000
1!
1K
1L
0C
1\"
0U
1l
0*!
1.!
1>
0V
1`
10!
#530000
0!
0K
0L
1C
#535000
1!
1K
1L
0C
1T"
0\"
0Y"
00!
11!
05!
0T
1X
0l
1*!
0.!
1B
0>
0;
1)!
0`
10!
#540000
0!
0K
0L
1C
#545000
1!
1K
1L
0C
1\"
0X
0*!
1-!
1>
0)!
#550000
0!
0K
0L
1C
#555000
1!
1K
1L
0C
1["
0\"
1*!
1=
0>
#560000
0!
0K
0L
1C
#565000
1!
1K
1L
0C
1\"
0*!
1+!
0-!
1>
#570000
0!
0K
0L
1C
#575000
1!
1K
1L
0C
0["
1Z"
0\"
1*!
0=
1<
0>
#580000
0!
0K
0L
1C
#585000
1!
1K
1L
0C
1\"
0*!
1-!
1>
#590000
0!
0K
0L
1C
#595000
1!
1K
1L
0C
1["
0\"
1*!
1=
0>
#600000
0!
0K
0L
1C
#605000
1!
1K
1L
0C
1\"
1U
0*!
0+!
0-!
1>
1V
#610000
0!
0K
0L
1C
#615000
1!
1K
1L
0C
0["
0Z"
0\"
1Y"
1T
1*!
0=
0<
0>
1;
#620000
0!
0K
0L
1C
#625000
1!
1K
1L
0C
1\"
0U
1l
0*!
1.!
1>
0V
1`
00!
14!
#630000
0!
0K
0L
1C
#635000
1!
1K
1L
0C
0S"
1R"
0T"
0\"
0Y"
10!
0T
1X
0l
1*!
0.!
0A
1@
0B
0>
0;
1)!
0`
00!
#640000
0!
0K
0L
1C
#645000
1!
1K
1L
0C
1\"
0X
0*!
1-!
1>
0)!
#650000
0!
0K
0L
1C
#655000
1!
1K
1L
0C
1["
0\"
1*!
1=
0>
#660000
0!
0K
0L
1C
#665000
1!
1K
1L
0C
1\"
0*!
1+!
0-!
1>
#670000
0!
0K
0L
1C
#675000
1!
1K
1L
0C
0["
1Z"
0\"
1*!
0=
1<
0>
#680000
0!
0K
0L
1C
#685000
1!
1K
1L
0C
1\"
0*!
1-!
1>
#690000
0!
0K
0L
1C
#695000
1!
1K
1L
0C
1["
0\"
1*!
1=
0>
#700000
0!
0K
0L
1C
#705000
1!
1K
1L
0C
1\"
1U
0*!
0+!
0-!
1>
1V
#710000
0!
0K
0L
1C
#715000
1!
1K
1L
0C
0["
0Z"
0\"
1Y"
1T
1*!
0=
0<
0>
1;
#720000
0!
0K
0L
1C
#725000
1!
1K
1L
0C
1\"
0U
1l
0*!
1.!
1>
0V
1`
10!
#730000
0!
0K
0L
1C
#735000
1!
1K
1L
0C
1T"
0\"
0Y"
1f
00!
01!
02!
16!
0T
1X
0l
1*!
0.!
1B
0>
0;
03!
1)!
0`
10!
#740000
0!
0K
0L
1C
#745000
1!
1K
1L
0C
1\"
0X
0*!
1-!
1>
0)!
#750000
0!
0K
0L
1C
#755000
1!
1K
1L
0C
1["
0\"
1*!
1=
0>
#760000
0!
0K
0L
1C
#765000
1!
1K
1L
0C
1\"
0*!
1+!
0-!
1>
#770000
0!
0K
0L
1C
#775000
1!
1K
1L
0C
0["
1Z"
0\"
1*!
0=
1<
0>
#780000
0!
0K
0L
1C
#785000
1!
1K
1L
0C
1\"
0*!
1-!
1>
#790000
0!
0K
0L
1C
#795000
1!
1K
1L
0C
1["
0\"
1*!
1=
0>
#800000
0!
0K
0L
1C
#805000
1!
1K
1L
0C
1\"
1U
0*!
0+!
0-!
1>
1V
#810000
0!
0K
0L
1C
#815000
1!
1K
1L
0C
0["
0Z"
0\"
1Y"
1T
1*!
0=
0<
0>
1;
#820000
0!
0K
0L
1C
#825000
1!
1K
1L
0C
1\"
0U
1l
0*!
1.!
1>
0V
17!
0B!
1F!
1T!
1`
1g
00!
04!
0o
0:!
1Y!
0D!
1#!
0G!
1I!
0U!
1J!
0V!
#830000
0!
0K
0L
1C
#835000
1!
1K
1L
0C
0X"
1"#
0V"
0L"
0R"
0T"
0\"
0I"
0Y"
0C!
0E!
0S!
1U!
1\!
1(!
0J!
1L!
1d
1h
1r
08!
0;!
1a
0f
06!
10!
0T
1X
0l
1*!
0.!
0i
0:
1.
08
06
0@
0B
0>
03
0;
0F!
1V!
1i
1)!
1C!
0H!
0Y!
1:!
0T!
00!
07!
0g
0`
0#!
1G!
0I!
0U!
0:!
1J!
0V!
#840000
0!
0K
0L
1C
#845000
1!
1K
1L
0C
1\"
0X
0*!
1-!
1>
0)!
#850000
0!
0K
0L
1C
#855000
1!
1K
1L
0C
1["
0\"
1*!
1=
0>
#860000
0!
0K
0L
1C
#865000
1!
1K
1L
0C
1\"
0*!
1+!
0-!
1>
#870000
0!
0K
0L
1C
#875000
1!
1K
1L
0C
0["
1Z"
0\"
1*!
0=
1<
0>
#880000
0!
0K
0L
1C
#885000
1!
1K
1L
0C
1\"
0*!
1-!
1>
#890000
0!
0K
0L
1C
#895000
1!
1K
1L
0C
1["
0\"
1*!
1=
0>
#900000
0!
0K
0L
1C
#905000
1!
1K
1L
0C
1\"
1U
0*!
0+!
0-!
1>
1V
#910000
0!
0K
0L
1C
#915000
1!
1K
1L
0C
0["
0Z"
0\"
1Y"
1T
1*!
0=
0<
0>
1;
#920000
0!
0K
0L
1C
#925000
1!
1K
1L
0C
1\"
0U
1l
0*!
1.!
1>
0V
1`
10!
#930000
0!
0K
0L
1C
#935000
1!
1K
1L
0C
1T"
0\"
0Y"
0a
00!
12!
15!
0T
1X
0l
1*!
0.!
1B
0>
0;
1)!
10!
13!
0`
#940000
0!
0K
0L
1C
#945000
1!
1K
1L
0C
1\"
0X
0*!
1-!
1>
0)!
#950000
0!
0K
0L
1C
#955000
1!
1K
1L
0C
1["
0\"
1*!
1=
0>
#960000
0!
0K
0L
1C
#965000
1!
1K
1L
0C
1\"
0*!
1+!
0-!
1>
#970000
0!
0K
0L
1C
#975000
1!
1K
1L
0C
0["
1Z"
0\"
1*!
0=
1<
0>
#980000
0!
0K
0L
1C
#985000
1!
1K
1L
0C
1\"
0*!
1-!
1>
#990000
0!
0K
0L
1C
#995000
1!
1K
1L
0C
1["
0\"
1*!
1=
0>
#1000000
0!
0K
0L
1C
#1005000
1!
1K
1L
0C
1\"
1U
0*!
0+!
0-!
1>
1V
#1010000
0!
0K
0L
1C
#1015000
1!
1K
1L
0C
0["
0Z"
0\"
1Y"
1T
1*!
0=
0<
0>
1;
#1020000
0!
0K
0L
1C
#1025000
1!
1K
1L
0C
1\"
0U
1l
0*!
1.!
1>
0V
1`
00!
#1030000
0!
0K
0L
1C
#1035000
1!
1K
1L
0C
1S"
0T"
0\"
0Y"
10!
0T
1X
0l
1*!
0.!
1A
0B
0>
0;
1)!
0`
00!
#1040000
0!
0K
0L
1C
#1045000
1!
1K
1L
0C
1\"
0X
0*!
1-!
1>
0)!
#1050000
0!
0K
0L
1C
#1055000
1!
1K
1L
0C
1["
0\"
1*!
1=
0>
#1060000
0!
0K
0L
1C
#1065000
1!
1K
1L
0C
1\"
0*!
1+!
0-!
1>
#1070000
0!
0K
0L
1C
#1075000
1!
1K
1L
0C
0["
1Z"
0\"
1*!
0=
1<
0>
#1080000
0!
0K
0L
1C
#1085000
1!
1K
1L
0C
1\"
0*!
1-!
1>
#1090000
0!
0K
0L
1C
#1095000
1!
1K
1L
0C
1["
0\"
1*!
1=
0>
#1100000
0!
0K
0L
1C
#1105000
1!
1K
1L
0C
1\"
1U
0*!
0+!
0-!
1>
1V
#1110000
0!
0K
0L
1C
#1115000
1!
1K
1L
0C
0["
0Z"
0\"
1Y"
1T
1*!
0=
0<
0>
1;
#1120000
0!
0K
0L
1C
#1125000
1!
1K
1L
0C
1\"
0U
1l
0*!
1.!
1>
0V
1`
10!
#1130000
0!
0K
0L
1C
#1135000
1!
1K
1L
0C
1T"
0\"
0Y"
00!
11!
05!
0T
1X
0l
1*!
0.!
1B
0>
0;
1)!
0`
10!
#1140000
0!
0K
0L
1C
#1145000
1!
1K
1L
0C
1\"
0X
0*!
1-!
1>
0)!
#1150000
0!
0K
0L
1C
#1155000
1!
1K
1L
0C
1["
0\"
1*!
1=
0>
#1160000
0!
0K
0L
1C
#1165000
1!
1K
1L
0C
1\"
0*!
1+!
0-!
1>
#1170000
0!
0K
0L
1C
#1175000
1!
1K
1L
0C
0["
1Z"
0\"
1*!
0=
1<
0>
#1180000
0!
0K
0L
1C
#1185000
1!
1K
1L
0C
1\"
0*!
1-!
1>
#1190000
0!
0K
0L
1C
#1195000
1!
1K
1L
0C
1["
0\"
1*!
1=
0>
#1200000
0!
0K
0L
1C
#1205000
1!
1K
1L
0C
1\"
1U
0*!
0+!
0-!
1>
1V
#1210000
0!
0K
0L
1C
#1215000
1!
1K
1L
0C
0["
0Z"
0\"
1Y"
1T
1*!
0=
0<
0>
1;
#1220000
0!
0K
0L
1C
#1225000
1!
1K
1L
0C
1\"
0U
1l
0*!
1.!
1>
0V
1`
00!
14!
#1230000
0!
0K
0L
1C
#1235000
1!
1K
1L
0C
0S"
1R"
0T"
0\"
0Y"
10!
0T
1X
0l
1*!
0.!
0A
1@
0B
0>
0;
1)!
0`
00!
#1240000
0!
0K
0L
1C
#1245000
1!
1K
1L
0C
1\"
0X
0*!
1-!
1>
0)!
#1250000
0!
0K
0L
1C
#1255000
1!
1K
1L
0C
1["
0\"
1*!
1=
0>
#1260000
0!
0K
0L
1C
#1265000
1!
1K
1L
0C
1\"
0*!
1+!
0-!
1>
#1270000
0!
0K
0L
1C
#1275000
1!
1K
1L
0C
0["
1Z"
0\"
1*!
0=
1<
0>
#1280000
0!
0K
0L
1C
#1285000
1!
1K
1L
0C
1\"
0*!
1-!
1>
#1290000
0!
0K
0L
1C
#1295000
1!
1K
1L
0C
1["
0\"
1*!
1=
0>
#1300000
0!
0K
0L
1C
#1305000
1!
1K
1L
0C
1\"
1U
0*!
0+!
0-!
1>
1V
#1310000
0!
0K
0L
1C
#1315000
1!
1K
1L
0C
0["
0Z"
0\"
1Y"
1T
1*!
0=
0<
0>
1;
#1320000
0!
0K
0L
1C
#1325000
1!
1K
1L
0C
1\"
0U
1l
0*!
1.!
1>
0V
1`
10!
#1330000
0!
0K
0L
1C
#1335000
1!
1K
1L
0C
1T"
0\"
0Y"
1f
00!
01!
02!
16!
0T
1X
0l
1*!
0.!
1B
0>
0;
03!
1)!
0`
10!
#1340000
0!
0K
0L
1C
#1345000
1!
1K
1L
0C
1\"
0X
0*!
1-!
1>
0)!
#1350000
0!
0K
0L
1C
#1355000
1!
1K
1L
0C
1["
0\"
1*!
1=
0>
#1360000
0!
0K
0L
1C
#1365000
1!
1K
1L
0C
1\"
0*!
1+!
0-!
1>
#1370000
0!
0K
0L
1C
#1375000
1!
1K
1L
0C
0["
1Z"
0\"
1*!
0=
1<
0>
#1380000
0!
0K
0L
1C
#1385000
1!
1K
1L
0C
1\"
0*!
1-!
1>
#1390000
0!
0K
0L
1C
#1395000
1!
1K
1L
0C
1["
0\"
1*!
1=
0>
#1400000
0!
0K
0L
1C
#1405000
1!
1K
1L
0C
1\"
1U
0*!
0+!
0-!
1>
1V
#1410000
0!
0K
0L
1C
